{
  "signals": [
    {
      "name": "palette", "value": "Viridis",
      "bind": {
        "input": "select",
        "options": [
          "Viridis",
          "Magma",
          "Inferno",
          "Plasma",
          "DarkBlue",
          "DarkGold",
          "DarkGreen",
          "DarkMulti",
          "DarkRed",
          "LightGreyRed",
          "LightGreyTeal",
          "LightMulti",
          "LightOrange",
          "LightTealBlue",
          "Blues",
          "Browns",
          "Greens",
          "Greys",
          "Oranges",
          "Purples",
          "Reds",
          "TealBlues",
          "Teals",
          "WarmGreys",
          "BlueOrange",
          "BrownBlueGreen",
          "PurpleGreen",
          "PinkYellowGreen",
          "PurpleOrange",
          "RedBlue",
          "RedGrey",
          "RedYellowBlue",
          "RedYellowGreen",
          "BlueGreen",
          "BluePurple",
          "GoldGreen",
          "GoldOrange",
          "GoldRed",
          "GreenBlue",
          "OrangeRed",
          "PurpleBlueGreen",
          "PurpleBlue",
          "PurpleRed",
          "RedPurple",
          "YellowGreenBlue",
          "YellowGreen",
          "YellowOrangeBrown",
          "YellowOrangeRed"
        ]
      }
    },
    {
      "name": "reverse", "value": false, "bind": {"input": "checkbox"}
    }
  ],

  "scales": [
    {
      "name": "x",
      "type": "band",
      "domain": {"data": "table", "field": "x"},
      "range": "width"
    },
    {
      "name": "y",
      "type": "band",
      "domain": {"data": "table", "field": "y"},
      "range": "height"
    },
    {
      "name": "color",
      "type": "linear",
      "range": {"scheme": {"signal": "palette"}},
      "domain": {"data": "table", "field": "value"},
      "reverse": {"signal": "reverse"},
      "zero": false, "nice": true
    }
  ],

  "axes": [
    {"orient": "bottom", "scale": "x", "domain": false, "title": "Columns"},
    {"orient": "left", "scale": "y", "domain": false, "title": "Rows"}
  ],

  "encoding": {
    "y": {"field": "y", "type": "string"},
    "x": {"field": "x", "type": "string"}
  },

  "legends": [
    {
      "fill": "color",
      "type": "gradient",
      "title": "Value",
      "titleFontSize": 12,
      "titlePadding": 4,
      "gradientLength": {"signal": "height - 16"}
    }
  ],

  "marks": [
    {
      "type": "rect",
      "from": {"data": "table"},
      "encode": {
        "enter": {
          "x": {"scale": "x", "field": "x"},
          "y": {"scale": "y", "field": "y"},
          "width": {"scale": "x", "band": 1},
          "height": {"scale": "y", "band": 1},
          "tooltip": {"field": "value"}
        },
        "update": {
          "fill": {"scale": "color", "field": "value"}
        }
      }
    }
  ]
}
