{
  "scales": [
    {
      "name": "x",
      "type": "point",
      "range": "width",
      "domain": {"data": "table", "field": "x"}
    },
    {
      "name": "y",
      "type": "linear",
      "range": "height",
      "nice": true, "zero": true,
      "domain": {"data": "table", "field": "y1"}
    },
    {
      "name": "color",
      "type": "ordinal",
      "range": "category",
      "domain": {"data": "table", "field": "c"}
    }
  ],

  "axes": [
    {"orient": "bottom", "scale": "x", "zindex": 1},
    {"orient": "left", "scale": "y", "zindex": 1}
  ],

  "marks": [
    {
      "type": "group",
      "from": {
        "facet": {
          "name": "series",
          "data": "table",
          "groupby": "c"
        }
      },
      "marks": [
        {
          "type": "area",
          "from": {"data": "series"},
          "encode": {
            "enter": {
              "interpolate": {"value": "monotone"},
              "x": {"scale": "x", "field": "x"},
              "y": {"scale": "y", "field": "y0"},
              "y2": {"scale": "y", "field": "y1"},
              "fill": {"scale": "color", "field": "c"}
            },
            "update": {
              "fillOpacity": {"value": 1}
            },
            "hover": {
              "fillOpacity": {"value": 0.5}
            }
          }
        }
      ]
    }
  ]
}
