[
    "docker-base1.1:http-stresstest?stresstime=30",
    "docker-base1.3:http-stresstest?stresstime=30",
    "docker-base1.5:http-stresstest?stresstime=30",
    "docker-base1.10:http-stresstest?stresstime=30",
    "docker-base1.15:http-stresstest?stresstime=30",
    "docker-base1.20:http-stresstest?stresstime=30",
    "docker-base1.30:http-stresstest?stresstime=30",
    "docker-base2.1:http-stresstest?stresstime=30",
    "docker-base2.3:http-stresstest?stresstime=30",
    "docker-base2.5:http-stresstest?stresstime=30",
    "docker-base2.10:http-stresstest?stresstime=30",
    "docker-base2.15:http-stresstest?stresstime=30",
    "docker-base2.20:http-stresstest?stresstime=30",
    "docker-base2.30:http-stresstest?stresstime=30",
    "docker-base3.1:http-stresstest?stresstime=30",
    "docker-base3.3:http-stresstest?stresstime=30",
    "docker-base3.5:http-stresstest?stresstime=30",
    "docker-base3.10:http-stresstest?stresstime=30",
    "docker-base3.15:http-stresstest?stresstime=30",
    "docker-base3.20:http-stresstest?stresstime=30",
    "docker-base3.30:http-stresstest?stresstime=30",
    "kubernetes1.1:http-stresstest?stresstime=30",
    "kubernetes1.2:http-stresstest?stresstime=30",
    "kubernetes1.3:http-stresstest?stresstime=30",
    "kubernetes1.5:http-stresstest?stresstime=30",
    "kubernetes1.10:http-stresstest?stresstime=30",
    "kubernetes1.15:http-stresstest?stresstime=30",
    "kubernetes1.20:http-stresstest?stresstime=30",
    "kubernetes1.30:http-stresstest?stresstime=30",
    "kubernetes2.1:http-stresstest?stresstime=30",
    "kubernetes2.2:http-stresstest?stresstime=30",
    "kubernetes2.3:http-stresstest?stresstime=30",
    "kubernetes2.5:http-stresstest?stresstime=30",
    "kubernetes2.10:http-stresstest?stresstime=30",
    "kubernetes2.15:http-stresstest?stresstime=30",
    "kubernetes2.20:http-stresstest?stresstime=30",
    "kubernetes2.30:http-stresstest?stresstime=30",
    "kubernetes3.1:http-stresstest?stresstime=30",
    "kubernetes3.2:http-stresstest?stresstime=30",
    "kubernetes3.3:http-stresstest?stresstime=30",
    "kubernetes3.5:http-stresstest?stresstime=30",
    "kubernetes3.10:http-stresstest?stresstime=30",
    "kubernetes3.15:http-stresstest?stresstime=30",
    "kubernetes3.20:http-stresstest?stresstime=30",
    "kubernetes3.30:http-stresstest?stresstime=30",
    "mgmt-bareBones1:http-stresstest?stresstime=30",
    "mgmt-bareBones1+nginx:http-stresstest?stresstime=30",
    "mgmt-bareBones2+nginx:http-stresstest?stresstime=30",
    "mgmt-bareBones3+nginx:http-stresstest?stresstime=30",
    "mgmt-bareBones4+nginx:http-stresstest?stresstime=30",
    "mgmt-bareBones5+nginx:http-stresstest?stresstime=30"
]